// license:BSD-3-Clause
// copyright-holders:QUFB
/******************************************************************************

    casio.lst

    List of all enabled drivers in the system. This file is parsed by
    makelist.exe, sorted, and output as C code describing the drivers.

******************************************************************************/

@source:casio/cfx9850.cpp
cfx9850        //  
