0207fa6c
0207faba
0207fae0
0207fb0c
0207fb16
0207fb8a
0207fe70
0207fe74
0207fe7c
0207feec
0207fef0
0207fef8
0207ff00
0207ff38
0207ff50
0207ff64
0207ff70
0207ff7e
0207ff84
0207ffa4
0207ffac
0207ffb4
0207ffb8
0207ffc2
0207ffc8
0207ffec
0207fff2
02080064
020800a8
020800b6
02080100
02080108
02080114
02080118
02080122
02080148
0208018c
02080190
0208019a
020801a4
0208177a
02081782
02081786
02081798
020817a0
020817a8
020817ac
020817b6
020817c2
020817c6
020817c8
020817ca
020817d8
020817dc
020817de
020817e0
020817ee
020817f2
020817f4
020817f6
020817fa
02081800
02081806
02081834
02081840
0208184c
02081850
02081854
02081864
02081866
02081870
02081882
02081884
0208188e
02081894
020818a4
020818a8
020818b0
020818bc
020818be
020818ca
020818f2
02081900
0208190c
0208192a
0208193a
02081954
02081958
0208196e
0208197a
0208198c
0208199c
020819f4
020819fe
02081a00
02081a0a
02081c8a
02081c94
02081c98
02081cd4
02081cee
02081d00
02081d64
02081d9a
02081db2
02081db4
02081dce
02081dd0
02081e08
02081e24
02081e44
02081e64
02081fec
02082000
02082034
0208203e
0208204a
0208204e
02082056
02082072
0208207a
02082086
02082096
020820a6
020820c2
020820c4
020820ce
020820de
020820f4
020820fc
0208211c
0208215a
02082166
02082168
0208217c
0208217e
0208218a
02082198
0208219c
020821a4
020821c0
020821c8
020821d4
020821e4
020821e6
020821f4
02082200
02082210
02082212
0208221c
0208222c
02082240
0208224a
02082278
020822c0
020822ca
020822d4
020822d8
020822e0
020822fc
020822fe
02082304
02082310
02082320
02082330
0208234c
0208234e
02082358
02082368
0208237e
02082386
020823a8
020823ca
020823d0
020823d6
02082402
0208240c
02082412
02082414
0208241a
02082428
0208242e
02082430
02082436
02082448
02082454
02082460
0208246e
0208247c
02082482
02082488
0208248a
02082494
020824a2
02082698
020826a2
020826b0
020826b8
020826d0
020826d8
020826e2
020826f0
020826fe
02082700
0208270a
0208272e
0208275c
0208276a
020827ae
020827b8
020827bc
020827c0
02082820
0208282a
02082834
02082848
02082852
02082880
02082892
020828aa
020828bc
020828c0
020828c6
020828d0
020828e4
02082900
0208291c
0208292c
0208293c
0208299c
020829aa
02082a10
02082a4c
02082a5a
02082a62
02082a68
02082a6c
02082a78
02082a80
02082a82
02082a8e
02082b0c
02082b18
02082b40
02082b66
02082b70
02082b7a
02082b7e
02082b80
02082b8a
02082b96
02082ba0
02082ba8
02082bac
02082bb6
02082bbe
02082bc2
02082bcc
02082bd4
02082bd8
02082be2
02082bee
02082c00
02082c04
02082d08
02082d0a
02082d14
02082d1e
02082d36
02082d3a
02082d46
02082d4c
02082d4e
02082d56
02082d58
02082d60
02082d80
02082d86
02082d88
02082db0
02082db2
02082db8
02082dbe
02082dce
02082dd6
02082ddc
02082de2
02082de4
02082de6
02082df2
02082df8
02082dfc
02082e00
02082e18
02082e24
02082e2a
02082e2e
02082e38
02082e48
02082e4e
02082e5c
02082e64
02082e68
02082e7c
02082e88
02082e8c
02082e92
02082e9a
02082ea0
02082ea2
02082ea4
02082eae
02082ec6
02082ed8
02082ede
02082eea
02082ef0
02082ef2
02082efa
02082efe
02082f00
02082f04
02082f0a
02082f16
02082f1c
02082f1e
02082f24
02082f28
02082f38
02082f44
02082f48
02082f4e
02082f56
02082f5e
02082f60
02082f6a
02082f96
02082f98
02082f9e
02082fa4
02082fb2
02082fba
02082fc6
02082fca
02082fd8
02082fe4
02082fea
02082fee
02082ff4
02082ffa
02083008
02083012
02083020
02083024
0208302e
02083048
02083056
0208305e
02083062
02083074
02083080
02083084
0208308a
02083092
0208309a
0208309c
020830a6
020830ba
020830d2
020830e2
020830ea
020830ec
020830ee
020830f6
020830fa
02083100
02083106
02083110
02083116
02083118
0208311e
02083122
02083138
02083144
02083148
0208314e
02083156
0208315e
0208316a
02083182
0208318c
02083190
020831ac
020831b4
020831b6
020831c6
020831c8
020831cc
020831e8
020831ea
020831ec
020831fc
020831fe
02083200
02083a18
02083a20
02083a28
02083a2a
02083a32
02083a3a
02083a3c
02083a40
02083a48
02083a4e
02083a5a
02083a5e
02083a74
02083a7e
02083a84
02083a90
02083b30
02083b3c
02083b44
02083b4c
02083b58
02083b5a
02083b5e
02083b6a
02083b76
02083b80
02083b88
02083b8e
02083b90
02083ba0
02083bc0
02083bd8
02083bf6
02083c04
02083c40
02083c48
02083c54
02083c62
02083c6a
02083c6e
02083c76
02083c7a
02083c82
02083c8a
02083c9a
02083ccc
02083ce0
02083cf2
02083d0a
02083d32
02083d44
02083d96
02083da0
02083dfc
02083e14
02083e1e
02083e26
02083e2a
02083e34
02083e3c
02083e40
02083e4a
02083e52
02083e56
02083e60
02083e68
02083e6c
02083e76
02083e7e
02083e82
02083e8c
02083e94
02083e98
02083ea2
02083ea4
02083eae
02083eba
02083ebc
02083ec8
02083ed4
02083eec
02083efa
02083efc
02083f00
02083f48
02083f58
02083f64
02083f6c
02083f84
02083f9a
02083f9c
02083fa8
02083fbe
02083fc0
02083fc4
02083fce
02083fdc
02083ff4
02084018
020842fc
02084300
0208430e
02084330
02084346
02084354
02084360
0208436e
020843aa
020843ba
020843c2
020843ce
020843d8
020843fe
0208441c
0208442c
0208442e
02084432
02084438
02084446
02084450
02084452
02084460
0208449c
020844ac
020844b4
020844ca
020844e6
020844f0
020844f8
02084504
0208450e
0208451e
02084520
02084524
0208452e
02084534
02084584
0208458c
02084596
0208459e
020845a6
020845ae
020845b6
020845c6
020845d0
020845dc
020845de
020845f8
020845fe
02084600
02084644
0208464e
0208465e
0208468e
02084694
0208469a
020846a4
020846ac
020846c2
020846c6
020846d8
020846e0
020846fe
02084710
02084718
02084736
0208474a
0208478a
020847aa
020847b4
020847c2
020847d0
020847e0
020847e6
020847ea
020847ee
020847fe
0208480e
0208481e
02084820
0208482c
020848b8
020848c0
020848e2
020848f0
020848f6
02084900
02084914
02084922
02084954
0208495e
02084966
0208497a
020849e2
020849ea
020849f2
02084a00
02084a20
02084a38
02084a68
02084a90
02084a96
02084ab0
02084ac8
02084ad6
02084ae0
02084afa
02084b0c
02084b16
02084b20
02084b2c
02084b4e
02084b58
02084b60
02084b68
02084b6a
02084b70
02084b84
02084bfa
02084c00
02084c0a
02084c16
02084c38
02084c4c
02084c64
02084c7a
02084c94
02084caa
02084cc2
02084cda
02084cf4
02084d0c
02084d3e
02084d58
02084d6c
02084d92
02084d9a
02084daa
02084de4
02084e28
02084e32
02084e40
02084e4e
02084e70
02084ea2
02084ee4
02084ef4
02084f00
02084f02
02084f10
02084f1c
02084f24
02084f38
02084f5a
02084f62
02084f70
02084fe0
02084ff0
02084ffe
0208500c
02085018
02085020
02085034
02085056
0208505e
0208506c
020852f4
020852fe
0208530a
0208531c
02085342
02085378
020854ac
020854b8
020854ba
020854c6
020854d6
020854e0
020854ea
02085506
02085510
0208551c
02085526
02085528
02085536
02085540
02085546
02085552
02085558
0208555c
0208555e
0208556c
02085576
02085580
02085586
020855b4
020855bc
020855c0
020855ca
020855d2
020855d6
020855e0
020855e8
02085622
0208566a
0208567a
02085682
0208568c
02085698
020856d8
020856e2
0208571c
0208572a
02085738
0208573e
02085756
02085760
02085766
02085780
02085782
0208579a
020857e2
020857fa
02085800
02085804
0208580c
02085816
0208581e
02085830
02085848
02085860
0208587c
02085880
02085882
02085888
020858a6
020858c2
020858cc
020858e8
020858f0
020858f4
020858f8
02085900
02085904
02085908
02085912
02085924
02085934
02085946
02085948
02085950
02085954
0208595a
0208595e
02085968
0208597c
0208597e
0208598a
02085996
0208599e
020859a2
020859a4
020859a6
020859a8
020859b8
020859ca
020859d4
020859e0
020859e8
020859f0
02085a00
02085a06
02085a16
02085b50
02085b60
02085b78
02085b7a
02085b82
02085b8a
02085b92
02085bae
02085bbc
02085bc4
02085bcc
02085bf6
02085bfe
02085c06
02085c46
02085c7a
02085c7e
02085c98
02085ca6
02085cb4
02085cce
02085cda
02085d48
02085d52
02085d5a
02085d62
02085d78
02085d92
02085e10
02085e1a
02085e3a
02085e42
02085e5e
02087520
0208752e
02087562
0208756c
0208758a
02087596
0208759e
020875ae
020875b2
020875b4
020875b6
020875c0
020875d4
020875e0
020875e2
020875fc
02087600
02087604
0208761c
0208762a
0208762e
02087630
02087638
0208763c
0208768e
02087edc
02087eea
02087f04
02087f0c
02087f1a
02087f4e
02087f58
02087f6a
02087f9e
02087faa
02087fdc
02087fe4
02087ffc
02088000
02088008
0208801c
02088036
02088042
0208804a
02088056
0208805a
0208805e
02088060
0208807c
02088088
020880a8
020880b4
020880d6
020880e2
020880e6
020880f4
020880fc
020880fe
02088100
0208811c
02088130
0208813a
02088140
0208816c
02088178
0208817a
02088dc4
02088f4e
02088f6a
02088f74
02088f80
02088f8c
02088f90
02088fa2
02088fac
020895ec
020895f6
02089600
02089606
02089678
02089738
02089840
0208984e
02089856
02089864
02089874
02089884
020899e0
02089b12
02089b1c
02089bcc
02089dfa
02089e00
02089e2c
02089e94
02089e9e
02089eaa
02089eb0
02089ebc
02089ec6
02089ece
02089f9c
02089fc8
0208a178
0208a270
0208a27a
0208a282
0208a28e
0208a296
0208a2a2
0208a2b2
0208a2c2
0208a336
0208a346
0208a34e
0208a356
0208a3a4
0208a3ae
0208a3b6
0208a3be
0208a3da
0208a3e4
0208a3ee
0208a3fc
0208a40a
0208a41e
0208a4f0
0208a4fa
0208a500
0208a8aa
0208a8c2
0208a8cc
0208a8ec
0208a900
0208a90c
0208a918
0208a91e
0208a970
0208aa1a
0208aa24
0208aa38
0208aa56
0208aa76
0208aa80
0208aa8e
0208aa9e
0208aaac
0208aab0
0208aaba
0208aaca
0208ada0
0208adc2
0208ade0
0208ae00
0208ae16
0208ae28
0208ae6e
0208ae80
0208ae8e
0208aeb6
0208af32
0208af3c
0208af4a
0208af5e
0208af6c
0208af78
0208af90
0208b564
0208b59e
0208b5ba
0208b654
0208b66e
0208b676
0208b688
0208b69c
0208b6a8
0208b6b2
0208b6c6
0208b6e2
0208b72c
0208b730
0208b73c
0208b778
0208b782
0208b790
0208b79e
0208b7a8
0208b7be
0208b7c8
0208b7d2
0208b7ea
0208b7f4
0208b80e
0208b816
0208b87c
0208b8b4
0208b8c0
0208b91c
0208b92a
0208b938
0208b9a0
0208b9bc
0208b9c6
0208b9d4
0208b9e2
0208b9ea
0208ba00
0208ba08
0208ba1c
0208ba2c
0208ba54
0208ba62
0208ba6a
0208ba72
0208ba7e
0208ba98
0208baa4
0208bae0
0208bb00
0208bb36
0208bb44
0208bb4c
0208bb7a
0208bb86
0208bba0
0208bbbe
0208bbe8
0208bc00
0208bc2c
0208bc38
0208bc54
0208bc8c
0208bc9a
0208bcb6
0208bcc0
0208bcdc
0208bcfe
0208bd24
0208bd50
0208bd88
0208bd96
0208bd9e
0208bdb2
0208bdbc
0208bdcc
0208bdd8
0208be00
0208be16
0208bf32
0208bf58
0208bf74
0208bf86
0208bf90
0208bf9a
0208bfa2
0208ca84
0208cad2
0208cae6
0208caf2
0208caf6
0208cb00
0208cb3c
0208cb48
0208cb9a
0208cbae
0208cbba
0208cbcc
0208cbd6
0208cbf2
0208cc00
0208cc0e
0208cc80
0208cc92
0208cc94
0208cc9c
0208ccba
0208cccc
0208cce6
0208cce8
0208ccf0
0208ccf8
0208cd00
0208cd04
0208cd12
0208cd22
0208cd30
0208cd3e
0208cd4c
0208cd6a
0208cd7a
0208cd88
0208cd96
0208cdb2
0208cdc2
0208cdd0
0208cdf8
0208cdfe
0208ce00
0208ce0a
0208ce0c
0208ce14
0208ce32
0208ce3e
0208ce48
0208ce4a
0208ce52
0208ce70
0208cef8
0208cf00
0208cf20
0208cf38
0208cf4a
0208cf8c
0208cfb6
0208cfe0
0208cfea
0208cff8
0208d000
0208d00a
0208d01c
0208d02e
0208d056
0208d07e
0208d0a6
0208d0dc
0208d0e4
0208d0ea
0208d0f6
0208d100
0208d102
0208d12c
0208d130
0208d148
0208d150
0208d158
0208d164
0208d170
0208d17c
0208d188
0208d196
0208d1a4
0208d1bc
0208d208
0208d274
0208d27a
0208d290
0208d2a4
0208d2ae
0208d2bc
0208d308
0208d328
0208d348
0208d35c
0208d374
0208d37e
0208d382
0208d3a6
0208d3be
0208d3c8
0208d3e4
0208d400
0208d4e8
0208d4f0
0208d4fa
0208d508
0208d51a
0208d520
0208d52c
0208d54c
0208d552
0208d55a
0208d56a
0208d570
0208d57c
0208d582
0208d588
0208d590
0208d598
0208d5a4
0208d5c0
0208d5ce
0208d5d6
0208d5dc
0208d5ec
0208d5f4
0208d5fc
0208d600
0208d606
0208d616
0208d618
0208d630
0208d632
0208d646
0208d64c
0208d668
0208d670
0208d678
0208d67e
0208d684
0208d686
0208d68e
0208d690
0208d698
0208d6be
0208d6cc
0208d6d2
0208d6d8
0208d6da
0208d6e8
0208d6ee
0208d6f4
0208d702
0208d712
0208d714
0208d71e
0208d722
0208d730
0208d73c
0208d744
0208d77c
0208d790
0208d798
0208d7a4
0208d7d0
0208d7d2
0208d7da
0208d7e2
0208d7e8
0208d7f8
0208d800
0208d818
0208d83e
0208d842
0208d84a
0208d852
0208d85a
0208e234
0208e264
0208e282
0208e2bc
0208e2e8
0208e300
0208e310
0208e31c
0208e3da
0208e3dc
0208e400
0208e4f4
0208e500
0208e6c8
0208e6d2
0208e708
0208e71a
0208e748
0208e750
0208e758
0208e764
0208e772
0208e790
0208e79e
0208e7ac
0208e7ba
0208e7d8
0208e7e8
0208e7f6
0208e800
0208e804
0208e814
0208e822
0208e830
0208e84e
0208e85c
0208e87a
0208e88c
0208e89a
0208e8c2
0208e8d8
0208e900
0208e914
0208e91e
0208e920
0208e922
0208e92a
0208e948
0208e9c8
0208e9cc
0208e9d4
0208e9d6
0208e9de
0208e9ee
0208e9fe
0208ea00
0208ea0e
0208ea20
0208ea2a
0208ea2e
0208eaa8
0208eab2
0208eabc
0208eacc
0208eade
0208eae8
0208eaf8
0208eb00
0208eb0a
0208eb0e
0208eb3a
0208eb48
0208eb68
0208eb76
0208eb84
0208ec68
0208ec6e
0208ec78
0208ec7a
0208ec84
0208ec94
0208efac
0208efae
0208eff4
0208f050
0208f0ac
0208f0b8
0208f108
0208f170
0208f18e
0208f198
0208f1f0
0208f200
0208f206
0208f298
0208f2a0
0208f2b0
0208f2f4
0208f306
0208f30c
0208f35c
0208f366
0208f378
0208f3cc
0208f3de
0208f3ee
0208f400
0208f414
0208f45a
0208f462
0208f4b8
0208f4c2
0208f4e6
0208f512
0208f522
0208f542
0208f5c8
0208f704
0208f70e
0208f71e
0208f730
0208f742
0208f754
0208f770
0208f780
0208f784
0208f78c
0208f7a2
0208f81a
0208f830
0208f83c
0208f846
0208f878
0208f886
0208f8a4
0208f8c0
0208f8d4
0208f900
0208f90e
0208f916
0208f91e
0208f932
0208fcba
0208fcc6
0208fcce
0208fcf0
0208fd10
0208fd1a
0208fd24
0208fd2e
0208fd38
0208fd4c
0208fd56
0208fd5e
0208fd68
0208fd70
0208fd84
0208fd8c
0208fd96
0208fda0
0208fdae
0208fdc2
0208fdc6
0208fdce
0208fdda
0208fddc
0208fdee
0208fdf6
0208fdfc
0208fe10
0208fe30
0208ff00
0208ff0a
0208ff14
0208ff2c
0208ff44
0208ff4c
0208ff56
0208ff60
0208ff6a
0208ff74
0208ff88
0208ff92
0208ff9a
0208ffa4
0208ffac
0208ffc0
0208ffc8
0208ffd2
0208ffee
0208fffe
02090000
02090002
0209000a
0209002e
02090048
0209004c
02090070
02090478
020904a2
020904aa
020904b4
020904cc
020904de
020904e6
020904ec
020904fa
02090500
02090502
02090506
02090510
0209051c
02090522
02090524
0209052c
02090532
02090534
0209053e
0209054c
02090660
02090674
0209067e
02090694
020906a0
020906ac
020906b4
020906c2
020906e0
020906fc
02090700
02090706
0209071c
02090724
02090726
02090730
02090748
02090752
02090768
02090770
0209077c
02090870
020908a0
020908d2
020908e4
020908ec
020908f6
02090900
0209090c
02090916
0209092a
0209093a
02090944
02090952
02090c88
02090ca4
02090cc8
02090d9a
02090da4
02090db2
02090dba
02096740
0209674a
02096752
0209675c
02096764
02096770
02096792
020967c0
0209bab2
0209babc
0209bac4
0209bace
0209bad8
0209bae2
0209baf0
0209baf8
0209bb1c
0209bb20
0209bb2a
0209bb34
0209bb3e
0209bb4c
0209bb54
0209bb7a
0209bb84
0209bb92
0209bb9a
0209bbac
0209bbc4
0209bbce
0209bc24
0209bc3c
0209bc5c
0209bcac
0209bcc0
0209bcca
0209bcf8
0209bd00
0209bd2a
0209bd34
0209bd9e
0209bda8
0209bdb6
0209bdce
0209bddc
0209c39c
0209c3c8
0209c3d0
0209c3e6
0209c410
0209dcce
0209dcd6
0209dcda
0209dce2
0209dcea
0209e73c
0209e746
0209e750
0209e75e
0209e76a
0209e782
0209e7a8
020a1a68
020a1a72
020a1a7e
020a1a88
020a1a90
020a1d28
020a1d32
020a1d3c
020a1d44
020a1d48
020a1d52
020a1d5a
020a1d6e
020a1d76
020a1d80
020a1d8e
020a1d96
020a2ad8
020a2ae2
020a2afc
020a2b00
020a3eba
020a3edc
020a3ee6
020a3eee
020a3ef8
020a3f02
020a3f0c
020a3f14
020a3f4a
020a3f56
020a3f5e
020a3f68
020a3f7c
020a3f84
020a3fb6
020a3fc8
020a3fd0
020a4040
020a404c
020a405c
020a4064
020a406c
020a4076
020a408c
020a4096
020a40a6
020a40ae
020a40b6
020a40c0
020a40d8
020a40e2
020a40ec
020a40f4
020a40f6
020a4100
020a4116
020a4140
020a4158
020a4174
020a417e
020a4188
020a4192
020a419a
020a41be
020a41d0
020a4212
020a421a
020a422c
020a4246
020a4258
020a4260
020a4270
020a428c
020a42b0
020a42ba
020a42c6
020a42cc
020a42d4
020a42de
020a42f4
020a4318
020a4334
020a433e
020a4346
020a4356
020a435e
020a4384
020a438c
020a4398
020a43b0
020a43bc
020a43c6
020a43d0
020a43d8
020a43f6
020a441c
020a4426
020a442e
020a4438
020a4440
020a4450
020a4462
020a475e
020a477a
020a47c6
020a47e0
020a4806
020a4818
020a4822
020a482c
020a4834
020a48d2
020a48f8
020a4900
020a4902
020a4910
020a4924
020a4954
020a495e
020a496c
020a497a
020a498e
020a49a2
020a49c2
020a49ec
020a49f8
020a4a00
020a4a02
020a4ad8
020a4ae4
020a4b20
020a4b2a
020a4b36
020a4b42
020a4b5c
020a4b6e
020a4bb0
020a4ca0
020a4cb2
020a4cbc
020a4cd8
020a4cec
020a4d00
020a4d38
020a4d48
020a4d52
020a4d60
020a4d6e
020a4d7c
020a4d8a
020a4d98
020a4da6
020a4dd0
020a4de2
020a4df6
020a4e00
020a4e1c
020a4e26
020a4e2e
020a4e3e
020a4e46
020a4e4c
020a4e58
020a4e78
020a4e98
020a4ea2
020a4ea8
020a4eb4
020a4eb8
020a4ec2
020a4ed4
020a4ee0
020a4f28
020a4f48
020a4f68
020a4f74
020a4f82
020a4f90
020a4f94
020a4fb8
020a4fca
020a4fe4
020a4fec
020a4ffa
020a5000
020a5014
020a502c
020a507c
020a5082
020a50ce
020a50d6
020a50e0
020a50ee
020a50f6
020a552e
020a5550
020a555a
020a5570
020a557c
020a5586
020a55ac
020a55b8
020a55c2
020a8844
020a884e
020a8858
020a885c
020a8860
020a8864
020a8868
020a8870
020a8876
020a8884
020a888c
020a8894
020ab5f4
020ab600
020ab60c
020ab628
020ab632
020ab640
020ab64a
020ab656
020ab680
020ab684
020ab69e
020ab6ac
020ab6ba
020ab6be
020ab728
020ab746
020ab758
020ab77c
020ab788
020ab7a8
020ab7dc
020ab7e6
020ab7ee
020ab7f2
020ab7fa
020ab7fe
020ab800
020ab812
020ab826
020ab830
020ab838
020ab87e
020ab896
020ab89a
020ab8b4
020ab8c2
020ab8d0
020ab8d4
020ab8d6
020ab918
020ab936
020ab948
020ab96c
020ab978
020abfd4
020ac258
020ac266
020ac26e
020ac27e
020ac282
020ac288
020ac28e
020ac296
020ac2ac
020ac2b6
020ac2bc
020ac2c8
020ac2f6
020ac306
020ac30a
020ac33c
020ac464
020ac46e
020ac476
020ac484
020ac48e
020ac49c
020ac4c6
020ac4e0
020ac4ea
020ac4f2
020ac500
020ac50a
020ac518
020ac542
020ac55c
020ac566
020ac57c
020ac586
020ac594
020ac59e
020ac5be
020ac5e4
020ac5f0
020ac5fa
020ac600
020ac606
020ac61c
020ac69e
020ac6b2
020ac6e6
020ac768
020ac790
020ac808
020ac812
020ac88c
020ac896
020ac8a4
020ac8be
020ac8c6
020ac8e0
020ac8f2
020ac93a
020ac946
020ac94a
020ac956
020ac95a
020ac966
020ac968
020ac972
020ac982
020ac992
020ac996
020ac9a2
020ac9a4
020ac9bc
020ac9d4
020ac9ea
020ac9ee
020ac9fa
020aca00
020aca06
020aca1c
020aca28
020aca2c
020aca32
020aca3a
020acad2
020acb2a
020acc04
020acc0e
020acc1e
020acc4a
020acc50
020acc54
020acc6a
020acc80
020acc8c
020acc94
020acc96
020accac
020accd8
020accde
020acce2
020accf8
020acd00
020acd0e
020acd1a
020acd22
020acd24
020acd2c
020acd30
020acd3c
020acd64
020acd6c
020acd70
020acda2
020acda8
020acdac
020acdc0
020acde8
020acdf0
020acdf4
020ace00
020ace08
020ace1c
020ace26
020ace2c
020ace2e
020ad280
020ad2a8
020ad2b2
020ad2dc
020ad2e6
020ad328
020ad600
020ad794
020ad7de
020ada14
020adabc
020adc68
020adc88
020adca8
020aee30
020aee3c
020aeea6
020aeebc
020aeee4
020aeeea
020aeef0
020aeef6
020aeefc
020aef00
020aef02
020aef06
020aef0c
020aef14
020aef1a
020aef56
020aef8c
020aefb4
020aefe0
020aefe6
020aefec
020aeff2
020aeff8
020aeffe
020af000
020af002
020af00e
020af014
020af03c
020af04c
020af054
020af064
020af078
020af088
020af0cc
020af0d2
020af0d6
020af0e4
020af114
020af12a
020af138
020af140
020af14c
020af154
020af168
020af176
020af17e
020af18a
020af192
020af1a4
020af1ac
020af1b8
020af1c0
020af1ca
020af1d2
020af1ec
020af1f4
020af200
020af202
020af220
020af22e
020af236
020af242
020af24a
020af2bc
020af2c6
020af2d2
020af2e4
020af2fc
020af300
020af304
020af30e
020af32c
020af358
020af35c
020af366
020af384
020af39c
020af3c2
020af4cc
020af4d6
020af4e0
020af4fe
020af500
020af516
020af53c
020af648
020af7a2
020af7ac
020af7b4
020af7be
020af7de
020af856
020af864
020af86c
020af872
020af878
020af87e
020af8ae
020af8b8
020af8be
020af8ce
020af8d4
020af8e0
020af8e8
020af8f0
020af8fa
020af900
020af906
020af91a
020af92a
020af934
020af940
020af958
020af95e
020af968
020af970
020af978
020af980
020af990
020af9b0
020af9c0
020afa28
020afa32
020afa3c
020afac8
020afad2
020afb0c
020afb3a
020afb4a
020afb66
020b82ca
020b8300
020b8348
020b8378
020b83a8
020b8400
020b8408
020b8438
020b8468
020b8498
020b84c8
020b84ca
020b84ee
020b84f0
020b8500
020b852e
020b8530
020b8580
020b8582
020b858c
020b85b0
020b85b2
020b85f2
020b85f4
020b85fa
020b8600
020b8632
020b8634
020b865a
020b865c
020b8680
020b8682
020b8688
020b86aa
020b86ac
020b86ec
020b86ee
020b86f4
020b86f6
020b8700
020b8714
020b8738
020b873a
020b8756
020b8758
020b877c
020b878c
020b879a
020b879e
020b87be
020b87f0
020b87f2
020b8804
020b8832
020b8834
020b883c
020b8866
020b8868
020b886c
020b888c
020b88ae
020b88b0
020b88b6
020b88b8
020b88de
020b88e4
020b88ea
020b88ec
020b8900
020b8910
020b8912
020b8918
020b891a
020b8954
020b8956
020b895c
020b895e
020b8972
020b8978
020b8992
020b89b4
020b89b6
020b89f6
020b89f8
020b89fc
020b89fe
020b8a00
020b8a02
020b8a30
020b8a60
020b8a90
020b8ac0
020b8b00
020b8b14
020b8b38
020b8b3e
020b8b44
020b8b54
020b8b66
020b8b8a
020b8b92
020b8c4c
020b8c54
020b8cc8
020b8cd8
020b8cee
020b8cfa
020b8d00
020b8d10
020b8d1a
020b8d26
020b8d30
020b8d3c
020b8d46
020b8d52
020b8d68
020b8db4
020b8dba
020b8dc2
020b8dcc
020b8dd8
020b8de0
020b8de8
020b8df2
020b8df6
020b8e00
020b8e08
020b8e0a
020b8e18
020b8e24
020b8e26
020b8e6c
020b8e84
020b8e90
020b8ede
020b8ef2
020b8ef4
020b8efc
020b8f00
020b8f38
020b8f3e
020b8f4a
020b8f50
020b8f54
020b8f5c
020b8f78
020b8fd0
020b8fda
020b8fea
020b8ff0
020b9000
020b9002
020b900c
020b9022
020b9044
020b9050
020b9052
020b9098
020b90b0
020b90bc
020b9100
020b910a
020b9120
020b9136
020b914e
020b91b6
020b91be
020b91c8
020b91cc
020b91e8
020b91f0
020b91f2
020b9200
020b9204
020b9208
020b9224
020b9226
020b9228
020b9238
020b923a
020b9268
020b9270
020b9278
020b9286
020b9296
020b92a4
020b92b4
020b92c2
020b92d2
020b92e0
020b92f0
020b9300
020b9308
020b9310
020b9448
020b9458
020b945a
020b9462
020b946a
020b948c
020b948e
020b949e
020b94a2
020b94c0
020b9570
020b95c6
020b95c8
020b95e2
020b95ee
020b9600
020b960a
020b9614
020b9620
020b9630
020b9634
020b9642
020b965e
020b9662
020b966c
020b967c
020b9684
020b9690
020b969a
020b96cc
020b9700
020b971a
020b9724
020b9730
020b973c
020b9758
020b9762
020b976e
020b977e
020b9790
020b97ac
020b97b0
020b97ba
020b97ca
020b97d2
020b97e0
020b97e8
